*** Darwin 13x18 ***
Turn = 0.
  012345678901234567
0 ..................
1 ......h..r........
2 ..................
3 .......h..........
4 ..................
5 ..................
6 .t......h.........
7 ..................
8 ..................
9 ......t......t....
0 .......h..........
1 ............f.....
2 ..................

Turn = 2.
  012345678901234567
0 .........r........
1 ..................
2 ..................
3 ......h...........
4 ..................
5 .......h..........
6 .t....h...........
7 ..................
8 .......h..........
9 ......t......t....
0 ..................
1 ............f.....
2 ..................

Turn = 4.
  012345678901234567
0 ...........r......
1 ..................
2 ..................
3 ..................
4 ..................
5 ......h...........
6 .t..h..h..........
7 .......h..........
8 ..................
9 ......t......t....
0 ..................
1 ............f.....
2 ..................

Turn = 6.
  012345678901234567
0 .............r....
1 ..................
2 ..................
3 ..................
4 ..................
5 ..................
6 .th....h..........
7 ......hh..........
8 ..................
9 ......t......t....
0 ..................
1 ............f.....
2 ..................

*** Darwin 20x4 ***
Turn = 0.
  0123
0 ....
1 hr..
2 ....
3 ....
4 ....
5 ....
6 ....
7 .fh.
8 ....
9 ....
0 f...
1 ....
2 ....
3 ....
4 .r..
5 r...
6 ....
7 ....
8 .h..
9 ....

Turn = 2.
  0123
0 h...
1 ....
2 ....
3 .r..
4 ....
5 ....
6 ....
7 .fh.
8 ....
9 ....
0 f...
1 ....
2 ....
3 ....
4 ....
5 ....
6 rr..
7 ....
8 ....
9 .h..

Turn = 4.
  0123
0 h...
1 ....
2 ....
3 ....
4 ....
5 .r..
6 ....
7 .fh.
8 ....
9 ....
0 f...
1 ....
2 ....
3 ....
4 ....
5 ....
6 ....
7 ....
8 rr..
9 .h..

Turn = 6.
  0123
0 h...
1 ....
2 ....
3 ....
4 ....
5 ....
6 .r..
7 .rh.
8 ....
9 ....
0 f...
1 ....
2 ....
3 ....
4 ....
5 ....
6 ....
7 ....
8 .r..
9 r.r.

*** Darwin 7x8 ***
Turn = 0.
  01234567
0 ........
1 ........
2 .t..r...
3 ........
4 .t......
5 ......t.
6 ........

Turn = 4.
  01234567
0 ........
1 ........
2 .t......
3 ........
4 .t......
5 ......t.
6 ....r...

Turn = 8.
  01234567
0 ........
1 ........
2 .t......
3 ........
4 .t......
5 ......t.
6 .r......

*** Darwin 19x6 ***
Turn = 0.
  012345
0 ......
1 ...r..
2 ......
3 ...h..
4 ..ff..
5 ......
6 ......
7 ......
8 ......
9 ....r.
0 ..t...
1 ......
2 ......
3 .h....
4 ......
5 .t....
6 ......
7 ......
8 ......

Turn = 1.
  012345
0 ......
1 ..r...
2 ......
3 ..h...
4 ..ff..
5 ......
6 ......
7 ......
8 ......
9 ......
0 ..t.r.
1 ......
2 ......
3 h.....
4 ......
5 .t....
6 ......
7 ......
8 ......

Turn = 2.
  012345
0 ......
1 .r....
2 ......
3 .h....
4 ..ff..
5 ......
6 ......
7 ......
8 ......
9 ......
0 ..t...
1 ....r.
2 ......
3 h.....
4 ......
5 .t....
6 ......
7 ......
8 ......

Turn = 3.
  012345
0 ......
1 r.....
2 ......
3 h.....
4 ..ff..
5 ......
6 ......
7 ......
8 ......
9 ......
0 ..t...
1 ......
2 ....r.
3 h.....
4 ......
5 .t....
6 ......
7 ......
8 ......

Turn = 4.
  012345
0 ......
1 r.....
2 ......
3 h.....
4 ..ff..
5 ......
6 ......
7 ......
8 ......
9 ......
0 ..t...
1 ......
2 ......
3 h...r.
4 ......
5 .t....
6 ......
7 ......
8 ......

Turn = 5.
  012345
0 r.....
1 ......
2 ......
3 h.....
4 ..ff..
5 ......
6 ......
7 ......
8 ......
9 ......
0 ..t...
1 ......
2 ......
3 h.....
4 ....r.
5 .t....
6 ......
7 ......
8 ......

Turn = 6.
  012345
0 r.....
1 ......
2 ......
3 h.....
4 ..ff..
5 ......
6 ......
7 ......
8 ......
9 ......
0 ..t...
1 ......
2 ......
3 h.....
4 ......
5 .t..r.
6 ......
7 ......
8 ......

Turn = 7.
  012345
0 r.....
1 ......
2 ......
3 h.....
4 ..ff..
5 ......
6 ......
7 ......
8 ......
9 ......
0 ..t...
1 ......
2 ......
3 h.....
4 ......
5 .t....
6 ....r.
7 ......
8 ......

Turn = 8.
  012345
0 r.....
1 ......
2 ......
3 h.....
4 ..ff..
5 ......
6 ......
7 ......
8 ......
9 ......
0 ..t...
1 ......
2 ......
3 h.....
4 ......
5 .t....
6 ......
7 ....r.
8 ......

Turn = 9.
  012345
0 .r....
1 ......
2 ......
3 h.....
4 ..ff..
5 ......
6 ......
7 ......
8 ......
9 ......
0 ..t...
1 ......
2 ......
3 h.....
4 ......
5 .t....
6 ......
7 ......
8 ....r.

Turn = 10.
  012345
0 ..r...
1 ......
2 ......
3 h.....
4 ..ff..
5 ......
6 ......
7 ......
8 ......
9 ......
0 ..t...
1 ......
2 ......
3 h.....
4 ......
5 .t....
6 ......
7 ......
8 ....r.

*** Darwin 10x10 ***
Turn = 0.
  0123456789
0 .......f..
1 ..........
2 .t........
3 ..........
4 .....f....
5 ..........
6 ......r...
7 ..........
8 ........r.
9 ..........

Turn = 3.
  0123456789
0 .......f..
1 ..........
2 .t........
3 ..........
4 .....f....
5 ..........
6 ..........
7 ..........
8 ..........
9 ......r..r

Turn = 6.
  0123456789
0 .......f..
1 ..........
2 .t........
3 ..........
4 .....f....
5 ..........
6 ..........
7 ..........
8 ..........
9 .......rr.

Turn = 9.
  0123456789
0 .......f..
1 ..........
2 .t........
3 ..........
4 .....f....
5 ..........
6 ........r.
7 ..........
8 ..........
9 .....r....

*** Darwin 2x2 ***
Turn = 0.
  01
0 h.
1 ..

Turn = 1.
  01
0 h.
1 ..

Turn = 2.
  01
0 h.
1 ..

Turn = 3.
  01
0 h.
1 ..

Turn = 4.
  01
0 h.
1 ..

Turn = 5.
  01
0 h.
1 ..

Turn = 6.
  01
0 h.
1 ..

Turn = 7.
  01
0 h.
1 ..

Turn = 8.
  01
0 h.
1 ..

*** Darwin 13x12 ***
Turn = 0.
  012345678901
0 .hh.........
1 ..r.f.......
2 ..........t.
3 ............
4 ............
5 ..r.........
6 ............
7 ............
8 ..t.........
9 .........f..
0 ............
1 .f..........
2 ............

Turn = 2.
  012345678901
0 .h..........
1 r.h.f.......
2 ..........t.
3 ............
4 ............
5 ....r.......
6 ............
7 ............
8 ..t.........
9 .........f..
0 ............
1 .f..........
2 ............

Turn = 4.
  012345678901
0 rh..........
1 ....f.......
2 ..........t.
3 ..h.........
4 ............
5 ......r.....
6 ............
7 ............
8 ..t.........
9 .........f..
0 ............
1 .f..........
2 ............

Turn = 6.
  012345678901
0 rh..........
1 ....f.......
2 ..........t.
3 ............
4 ............
5 ..h.....r...
6 ............
7 ............
8 ..t.........
9 .........f..
0 ............
1 .f..........
2 ............

Turn = 8.
  012345678901
0 rr..........
1 ....f.......
2 ..........t.
3 ............
4 ............
5 ..........r.
6 ............
7 ..h.........
8 ..t.........
9 .........f..
0 ............
1 .f..........
2 ............

*** Darwin 2x19 ***
Turn = 0.
  0123456789012345678
0 hr.h..r........h...
1 ...................

Turn = 1.
  0123456789012345678
0 ...h............h..
1 hr....r............

Turn = 2.
  0123456789012345678
0 ...h.............h.
1 hr....r............

Turn = 3.
  0123456789012345678
0 ...h..............h
1 rr.....r...........

Turn = 4.
  0123456789012345678
0 ...h..............h
1 rr......r..........

*** Darwin 6x2 ***
Turn = 0.
  01
0 f.
1 ..
2 ..
3 ..
4 f.
5 ..

Turn = 1.
  01
0 f.
1 ..
2 ..
3 ..
4 f.
5 ..

Turn = 2.
  01
0 f.
1 ..
2 ..
3 ..
4 f.
5 ..

Turn = 3.
  01
0 f.
1 ..
2 ..
3 ..
4 f.
5 ..

Turn = 4.
  01
0 f.
1 ..
2 ..
3 ..
4 f.
5 ..

Turn = 5.
  01
0 f.
1 ..
2 ..
3 ..
4 f.
5 ..

Turn = 6.
  01
0 f.
1 ..
2 ..
3 ..
4 f.
5 ..

*** Darwin 19x20 ***
Turn = 0.
  01234567890123456789
0 ....................
1 .........fr.........
2 ........f...........
3 ....................
4 ....................
5 ....................
6 .........f..........
7 ..............t.....
8 ....................
9 ....................
0 ....................
1 ....................
2 ....................
3 ....................
4 .........r..........
5 ....................
6 ....................
7 .....f..............
8 ....................

*** Darwin 15x8 ***
Turn = 0.
  01234567
0 ........
1 ........
2 ........
3 ........
4 ........
5 .h......
6 ........
7 hf......
8 ........
9 ........
0 ........
1 ........
2 ........
3 ........
4 ........

Turn = 5.
  01234567
0 .h......
1 ........
2 ........
3 ........
4 ........
5 ........
6 ........
7 .f......
8 ........
9 ........
0 ........
1 ........
2 h.......
3 ........
4 ........

Turn = 10.
  01234567
0 .h......
1 ........
2 ........
3 ........
4 ........
5 ........
6 ........
7 .f......
8 ........
9 ........
0 ........
1 ........
2 ........
3 ........
4 h.......

*** Darwin 3x9 ***
Turn = 0.
  012345678
0 h........
1 .....hrt.
2 .........

Turn = 3.
  012345678
0 .........
1 .......r.
2 h....h..r

Turn = 6.
  012345678
0 ........r
1 .........
2 h....hr..

Turn = 9.
  012345678
0 .........
1 .........
2 h...r.r.r
