*** Darwin 20x20 ***
Turn = 0.
  01234567890123456789
0 f...................
1 f...................
2 ........t...........
3 ....................
4 ....................
5 ....................
6 ....................
7 ....................
8 f....h..............
9 ....................
0 ....................
1 ....................
2 ....................
3 ....................
4 ....................
5 ....................
6 ....................
7 ....................
8 ....................
9 .....r..............

Turn = 1.
  01234567890123456789
0 f...................
1 f...................
2 ........t...........
3 ....................
4 ....................
5 ....................
6 ....................
7 ....................
8 f.....h.............
9 ....................
0 ....................
1 ....................
2 ....................
3 ....................
4 ....................
5 ....................
6 ....................
7 ....................
8 ....................
9 ......r.............

Turn = 2.
  01234567890123456789
0 f...................
1 f...................
2 ........t...........
3 ....................
4 ....................
5 ....................
6 ....................
7 ....................
8 f......h............
9 ....................
0 ....................
1 ....................
2 ....................
3 ....................
4 ....................
5 ....................
6 ....................
7 ....................
8 ....................
9 .......r............

Turn = 3.
  01234567890123456789
0 f...................
1 f...................
2 ........t...........
3 ....................
4 ....................
5 ....................
6 ....................
7 ....................
8 f.......h...........
9 ....................
0 ....................
1 ....................
2 ....................
3 ....................
4 ....................
5 ....................
6 ....................
7 ....................
8 ....................
9 ........r...........

Turn = 4.
  01234567890123456789
0 f...................
1 f...................
2 ........t...........
3 ....................
4 ....................
5 ....................
6 ....................
7 ....................
8 f........h..........
9 ....................
0 ....................
1 ....................
2 ....................
3 ....................
4 ....................
5 ....................
6 ....................
7 ....................
8 ....................
9 .........r..........

Turn = 5.
  01234567890123456789
0 f...................
1 f...................
2 ........t...........
3 ....................
4 ....................
5 ....................
6 ....................
7 ....................
8 f.........h.........
9 ....................
0 ....................
1 ....................
2 ....................
3 ....................
4 ....................
5 ....................
6 ....................
7 ....................
8 ....................
9 ..........r.........

Turn = 6.
  01234567890123456789
0 f...................
1 f...................
2 ........t...........
3 ....................
4 ....................
5 ....................
6 ....................
7 ....................
8 f..........h........
9 ....................
0 ....................
1 ....................
2 ....................
3 ....................
4 ....................
5 ....................
6 ....................
7 ....................
8 ....................
9 ...........r........

Turn = 7.
  01234567890123456789
0 f...................
1 f...................
2 ........t...........
3 ....................
4 ....................
5 ....................
6 ....................
7 ....................
8 f...........h.......
9 ....................
0 ....................
1 ....................
2 ....................
3 ....................
4 ....................
5 ....................
6 ....................
7 ....................
8 ....................
9 ............r.......

Turn = 8.
  01234567890123456789
0 f...................
1 f...................
2 ........t...........
3 ....................
4 ....................
5 ....................
6 ....................
7 ....................
8 f............h......
9 ....................
0 ....................
1 ....................
2 ....................
3 ....................
4 ....................
5 ....................
6 ....................
7 ....................
8 ....................
9 .............r......

Turn = 9.
  01234567890123456789
0 f...................
1 f...................
2 ........t...........
3 ....................
4 ....................
5 ....................
6 ....................
7 ....................
8 f.............h.....
9 ....................
0 ....................
1 ....................
2 ....................
3 ....................
4 ....................
5 ....................
6 ....................
7 ....................
8 ....................
9 ..............r.....

Turn = 10.
  01234567890123456789
0 f...................
1 f...................
2 ........t...........
3 ....................
4 ....................
5 ....................
6 ....................
7 ....................
8 f..............h....
9 ....................
0 ....................
1 ....................
2 ....................
3 ....................
4 ....................
5 ....................
6 ....................
7 ....................
8 ....................
9 ...............r....

Turn = 11.
  01234567890123456789
0 f...................
1 f...................
2 ........t...........
3 ....................
4 ....................
5 ....................
6 ....................
7 ....................
8 f...............h...
9 ....................
0 ....................
1 ....................
2 ....................
3 ....................
4 ....................
5 ....................
6 ....................
7 ....................
8 ....................
9 ................r...

Turn = 12.
  01234567890123456789
0 f...................
1 f...................
2 ........t...........
3 ....................
4 ....................
5 ....................
6 ....................
7 ....................
8 f................h..
9 ....................
0 ....................
1 ....................
2 ....................
3 ....................
4 ....................
5 ....................
6 ....................
7 ....................
8 ....................
9 .................r..

Turn = 13.
  01234567890123456789
0 f...................
1 f...................
2 ........t...........
3 ....................
4 ....................
5 ....................
6 ....................
7 ....................
8 f.................h.
9 ....................
0 ....................
1 ....................
2 ....................
3 ....................
4 ....................
5 ....................
6 ....................
7 ....................
8 ....................
9 ..................r.

*** Darwin 20x20 ***
Turn = 0.
  01234567890123456789
0 .....h..............
1 .....h....t.........
2 f...................
3 f.....t.............
4 ....................
5 f.t.................
6 .....h.....t........
7 ....................
8 .....h..............
9 ...............t....
0 ............r.......
1 ....................
2 ........r...........
3 ....................
4 ....r...............
5 ....................
6 ....................
7 .........r..........
8 ....................
9 ....................

Turn = 5.
  01234567890123456789
0 ..........h.........
1 ..........t.........
2 f...................
3 f.....t.............
4 ....................
5 f.t.................
6 .....h.....t........
7 ........r...........
8 ..........h.........
9 ...............t....
0 ...............t....
1 .....h..............
2 ....................
3 ....................
4 .........r..........
5 ....................
6 ....................
7 ....r...............
8 ....................
9 ....................

Turn = 10.
  01234567890123456789
0 ...............h....
1 ..........t.........
2 f.......r...........
3 f.....t.............
4 ....................
5 f.t.................
6 ...........t........
7 ....................
8 ...............h....
9 ...............t....
0 ...............t....
1 .....h..............
2 ....................
3 ....................
4 ..............r.....
5 ....................
6 .....h..............
7 r...................
8 ....................
9 ....................

Turn = 15.
  01234567890123456789
0 ......r............h
1 ..........t.........
2 f...................
3 f.....t.............
4 ....................
5 f.t.................
6 ...........t........
7 ....................
8 ...................h
9 ...............t....
0 ...............t....
1 ....................
2 r...................
3 ....................
4 ...................r
5 ....................
6 .....h..............
7 ....................
8 ....................
9 .....h..............

*** Darwin 20x20 ***
Turn = 0.
  01234567890123456789
0 ....................
1 ..........t.........
2 f.......t...........
3 ....................
4 ....................
5 f....h..............
6 .....h..............
7 f....h..............
8 f......t............
9 ....................
0 ....................
1 ....................
2 ....................
3 ....................
4 ....................
5 ....................
6 ....................
7 ....................
8 .......r............
9 ....................

Turn = 3.
  01234567890123456789
0 ....................
1 ..........t.........
2 f....h..t...........
3 ....................
4 ....................
5 f...................
6 ....................
7 f.h.................
8 f....h.t............
9 ....................
0 ....................
1 ....................
2 ....................
3 ....................
4 ....................
5 ....................
6 ....................
7 ....................
8 ..........r.........
9 ....................

Turn = 6.
  01234567890123456789
0 .....h..............
1 ..........t.........
2 f.......t...........
3 ....................
4 ....................
5 f...................
6 ....................
7 fh..................
8 f......t............
9 ....................
0 ....................
1 .....h..............
2 ....................
3 ....................
4 ....................
5 ....................
6 ....................
7 ....................
8 .............r......
9 ....................

Turn = 9.
  01234567890123456789
0 .....h..............
1 ..........t.........
2 f.......t...........
3 ....................
4 ....................
5 f...................
6 ....................
7 fh..................
8 f......t............
9 ....................
0 ....................
1 ....................
2 ....................
3 ....................
4 .....h..............
5 ....................
6 ....................
7 ....................
8 ................r...
9 ....................

Turn = 12.
  01234567890123456789
0 .....h..............
1 ..........t.........
2 f.......t...........
3 ....................
4 ....................
5 f...................
6 ....................
7 fh..................
8 f......t............
9 ....................
0 ....................
1 ....................
2 ....................
3 ....................
4 ....................
5 ....................
6 ....................
7 .....h..............
8 ...................r
9 ....................

Turn = 15.
  01234567890123456789
0 .....h..............
1 ..........t.........
2 f.......t...........
3 ....................
4 ....................
5 f...................
6 ....................
7 fh..................
8 f......t............
9 ....................
0 ....................
1 ....................
2 ....................
3 ....................
4 ....................
5 ....................
6 ....................
7 ....................
8 ....................
9 .....h.............r

*** Darwin 20x20 ***
Turn = 0.
  01234567890123456789
0 ....................
1 f.........t.........
2 f...................
3 f...................
4 f...................
5 ....................
6 f...................
7 f...................
8 ....................
9 ....................
0 ....................
1 ....................
2 ....................
3 ......r.............
4 ....................
5 ....................
6 ....................
7 .........r..........
8 ....................
9 ....................

Turn = 2.
  01234567890123456789
0 ....................
1 f.........t.........
2 f...................
3 f...................
4 f...................
5 ....................
6 f...................
7 f...................
8 ....................
9 ....................
0 ....................
1 ....................
2 ....................
3 ....r...............
4 ....................
5 ....................
6 ....................
7 .......r............
8 ....................
9 ....................

Turn = 4.
  01234567890123456789
0 ....................
1 f.........t.........
2 f...................
3 f...................
4 f...................
5 ....................
6 f...................
7 f...................
8 ....................
9 ....................
0 ....................
1 ....................
2 ....................
3 ..r.................
4 ....................
5 ....................
6 ....................
7 .....r..............
8 ....................
9 ....................

Turn = 6.
  01234567890123456789
0 ....................
1 f.........t.........
2 f...................
3 f...................
4 f...................
5 ....................
6 f...................
7 f...................
8 ....................
9 ....................
0 ....................
1 ....................
2 ....................
3 r...................
4 ....................
5 ....................
6 ....................
7 ...r................
8 ....................
9 ....................

Turn = 8.
  01234567890123456789
0 ....................
1 f.........t.........
2 f...................
3 f...................
4 f...................
5 ....................
6 f...................
7 f...................
8 ....................
9 ....................
0 ....................
1 ....................
2 r...................
3 ....................
4 ....................
5 ....................
6 ....................
7 .r..................
8 ....................
9 ....................

Turn = 10.
  01234567890123456789
0 ....................
1 f.........t.........
2 f...................
3 f...................
4 f...................
5 ....................
6 f...................
7 f...................
8 ....................
9 ....................
0 r...................
1 ....................
2 ....................
3 ....................
4 ....................
5 ....................
6 ....................
7 r...................
8 ....................
9 ....................

Turn = 12.
  01234567890123456789
0 ....................
1 f.........t.........
2 f...................
3 f...................
4 f...................
5 ....................
6 f...................
7 f...................
8 r...................
9 ....................
0 ....................
1 ....................
2 ....................
3 ....................
4 ....................
5 ....................
6 ....................
7 ....................
8 ....................
9 r...................

Turn = 14.
  01234567890123456789
0 ....................
1 f.........t.........
2 f...................
3 f...................
4 f...................
5 ....................
6 r...................
7 r...................
8 r...................
9 ....................
0 ....................
1 ....................
2 ....................
3 ....................
4 ....................
5 ....................
6 ....................
7 ....................
8 ....................
9 r...................

Turn = 16.
  01234567890123456789
0 ....................
1 f.........t.........
2 f...................
3 f...................
4 f...................
5 r...................
6 ....................
7 r...................
8 ..r.................
9 ....................
0 ....................
1 ....................
2 ....................
3 ....................
4 ....................
5 ....................
6 ....................
7 r...................
8 ....................
9 ....................

Turn = 18.
  01234567890123456789
0 ....................
1 f.........t.........
2 f...................
3 r...................
4 r...................
5 r...................
6 ....................
7 ....................
8 ....r...............
9 r...................
0 ....................
1 ....................
2 ....................
3 ....................
4 ....................
5 r...................
6 ....................
7 ....................
8 ....................
9 ....................

*** Darwin 20x20 ***
Turn = 0.
  01234567890123456789
0 f...................
1 .....h..............
2 .....h..t...........
3 ....................
4 .....h..............
5 f...................
6 f....h..............
7 .........t..........
8 f...................
9 f..............t....
0 ....................
1 ..........r.........
2 ........r...........
3 ......r.............
4 ....r...............
5 ....................
6 ....................
7 .........r..........
8 ....................
9 .....r..............

Turn = 4.
  01234567890123456789
0 f...................
1 .....h..............
2 .....h..t...........
3 ....................
4 .........h..........
5 f...................
6 f...................
7 .........t..........
8 f.......r...........
9 f..............t....
0 .....h..............
1 ....................
2 ....................
3 ..r.................
4 ........r...........
5 ..........r.........
6 ....................
7 .....r..............
8 ....................
9 .........r..........

Turn = 8.
  01234567890123456789
0 f...................
1 .....h..............
2 .....h..t...........
3 ....................
4 ........r....h......
5 f...................
6 f...................
7 .........t..........
8 f...................
9 f..............t....
0 ....................
1 ....................
2 r...................
3 ....................
4 .....h......r.......
5 ....................
6 ....................
7 .r..................
8 ....................
9 ..........r..r......

Turn = 12.
  01234567890123456789
0 f...................
1 .....h..............
2 .....h.r............
3 .........r..........
4 .................h..
5 f...................
6 f...................
7 .........t..........
8 f...................
9 r..............t....
0 r...................
1 ....................
2 ....................
3 ....................
4 ................r...
5 r...................
6 ....................
7 ....................
8 .....h..............
9 .............r...r..

Turn = 16.
  01234567890123456789
0 f...................
1 .....rr.............
2 .....r..............
3 .............r......
4 ...................h
5 f...................
6 f...................
7 .........t..........
8 f...................
9 r..............t....
0 r...................
1 r...................
2 ....................
3 ....................
4 ...................r
5 ....................
6 ....................
7 ....................
8 ....................
9 .....h...........r.r

*** Darwin 20x20 ***
Turn = 0.
  01234567890123456789
0 ....................
1 f...................
2 ........t...........
3 .....h..............
4 ....................
5 ....................
6 ....................
7 ....................
8 .......t............
9 ....................
0 ....................
1 ....................
2 ........r...........
3 ......r.............
4 ....................
5 ....................
6 ....................
7 ....................
8 ....................
9 ....................

Turn = 5.
  01234567890123456789
0 ....................
1 f...................
2 ........t...........
3 h...................
4 ....................
5 ....................
6 ....................
7 ....................
8 .......tt...........
9 ....................
0 ....................
1 ....................
2 ....................
3 .r..................
4 ....................
5 ....................
6 ....................
7 ....................
8 ....................
9 ....................

Turn = 10.
  01234567890123456789
0 ....................
1 f...................
2 ........t...........
3 h...................
4 ....................
5 ....................
6 ....................
7 ....................
8 .......tt...........
9 ....................
0 r...................
1 ....................
2 ....................
3 ....................
4 ....................
5 ....................
6 ....................
7 ....................
8 ....................
9 ....................

*** Darwin 20x20 ***
Turn = 0.
  01234567890123456789
0 ............t.......
1 f.........t.........
2 ........t...........
3 ......t.............
4 ....t...............
5 ....................
6 f...................
7 ....................
8 f....h.t............
9 f....h..............
0 ....................
1 ....................
2 ........r...........
3 ......r.............
4 ....................
5 ....................
6 ....................
7 .........r..........
8 .......r............
9 ....................

Turn = 1.
  01234567890123456789
0 ............t.......
1 f.........t.........
2 ........t...........
3 ......t.............
4 ....t...............
5 ....................
6 f...................
7 ....................
8 f.....ht............
9 f.....h.............
0 ....................
1 ........r...........
2 ....................
3 .....r..............
4 ....................
5 ....................
6 ....................
7 ........r...........
8 ........r...........
9 ....................

Turn = 2.
  01234567890123456789
0 ............t.......
1 f.........t.........
2 ........t...........
3 ......t.............
4 ....t...............
5 ....................
6 f...................
7 ....................
8 f.....ht............
9 f......h............
0 ........r...........
1 ....................
2 ....................
3 ....r...............
4 ....................
5 ....................
6 ....................
7 .......r............
8 .........r..........
9 ....................

Turn = 3.
  01234567890123456789
0 ............t.......
1 f.........t.........
2 ........t...........
3 ......t.............
4 ....t...............
5 ....................
6 f...................
7 ....................
8 f.....tt............
9 f.......r...........
0 ........r...........
1 ....................
2 ....................
3 ...r................
4 ....................
5 ....................
6 ....................
7 ......r.............
8 ..........r.........
9 ....................

Turn = 4.
  01234567890123456789
0 ............t.......
1 f.........t.........
2 ........t...........
3 ......t.............
4 ....t...............
5 ....................
6 f...................
7 ....................
8 f.....tt............
9 f.......rr..........
0 ....................
1 ....................
2 ....................
3 ..r.................
4 ....................
5 ....................
6 ....................
7 .....r..............
8 ...........r........
9 ....................

Turn = 5.
  01234567890123456789
0 ............t.......
1 f.........t.........
2 ........t...........
3 ......t.............
4 ....t...............
5 ....................
6 f...................
7 ....................
8 f.....ttr...........
9 f.........r.........
0 ....................
1 ....................
2 ....................
3 .r..................
4 ....................
5 ....................
6 ....................
7 ....r...............
8 ............r.......
9 ....................

Turn = 6.
  01234567890123456789
0 ............t.......
1 f.........t.........
2 ........t...........
3 ......t.............
4 ....t...............
5 ....................
6 f...................
7 ....................
8 f.....ttt...........
9 f..........r........
0 ....................
1 ....................
2 ....................
3 r...................
4 ....................
5 ....................
6 ....................
7 ...r................
8 .............r......
9 ....................

Turn = 7.
  01234567890123456789
0 ............t.......
1 f.........t.........
2 ........t...........
3 ......t.............
4 ....t...............
5 ....................
6 f...................
7 ....................
8 f.....ttt...........
9 f...........r.......
0 ....................
1 ....................
2 ....................
3 r...................
4 ....................
5 ....................
6 ....................
7 ..r.................
8 ..............r.....
9 ....................

Turn = 8.
  01234567890123456789
0 ............t.......
1 f.........t.........
2 ........t...........
3 ......t.............
4 ....t...............
5 ....................
6 f...................
7 ....................
8 f.....ttt...........
9 f............r......
0 ....................
1 ....................
2 r...................
3 ....................
4 ....................
5 ....................
6 ....................
7 .r..................
8 ...............r....
9 ....................

Turn = 9.
  01234567890123456789
0 ............t.......
1 f.........t.........
2 ........t...........
3 ......t.............
4 ....t...............
5 ....................
6 f...................
7 ....................
8 f.....ttt...........
9 f.............r.....
0 ....................
1 r...................
2 ....................
3 ....................
4 ....................
5 ....................
6 ....................
7 r...................
8 ................r...
9 ....................

Turn = 10.
  01234567890123456789
0 ............t.......
1 f.........t.........
2 ........t...........
3 ......t.............
4 ....t...............
5 ....................
6 f...................
7 ....................
8 f.....ttt...........
9 f..............r....
0 r...................
1 ....................
2 ....................
3 ....................
4 ....................
5 ....................
6 ....................
7 r...................
8 .................r..
9 ....................

Turn = 11.
  01234567890123456789
0 ............t.......
1 f.........t.........
2 ........t...........
3 ......t.............
4 ....t...............
5 ....................
6 f...................
7 ....................
8 f.....ttt...........
9 r...............r...
0 r...................
1 ....................
2 ....................
3 ....................
4 ....................
5 ....................
6 ....................
7 ....................
8 r.................r.
9 ....................

*** Darwin 20x20 ***
Turn = 0.
  01234567890123456789
0 ............t.......
1 ....................
2 ....................
3 f.....t.............
4 ....................
5 .....h..............
6 ....................
7 ....................
8 ....................
9 ....................
0 ............r.......
1 ....................
2 ....................
3 ....................
4 ....................
5 ....................
6 ....................
7 ....................
8 ....................
9 ....................

Turn = 3.
  01234567890123456789
0 ............t.......
1 ....................
2 .....h..............
3 f.....t.............
4 ....................
5 ....................
6 ....................
7 ....................
8 ....................
9 ....................
0 ...............r....
1 ....................
2 ....................
3 ....................
4 ....................
5 ....................
6 ....................
7 ....................
8 ....................
9 ....................

Turn = 6.
  01234567890123456789
0 .....h......t.......
1 ....................
2 ....................
3 f.....t.............
4 ....................
5 ....................
6 ....................
7 ....................
8 ....................
9 ....................
0 ..................r.
1 ....................
2 ....................
3 ....................
4 ....................
5 ....................
6 ....................
7 ....................
8 ....................
9 ....................

Turn = 9.
  01234567890123456789
0 .....h......t.......
1 ....................
2 ....................
3 f.....t.............
4 ....................
5 ....................
6 ....................
7 ....................
8 ....................
9 ....................
0 ....................
1 ...................r
2 ....................
3 ....................
4 ....................
5 ....................
6 ....................
7 ....................
8 ....................
9 ....................

Turn = 12.
  01234567890123456789
0 .....h......t.......
1 ....................
2 ....................
3 f.....t.............
4 ....................
5 ....................
6 ....................
7 ....................
8 ....................
9 ....................
0 ....................
1 ....................
2 ....................
3 ....................
4 ...................r
5 ....................
6 ....................
7 ....................
8 ....................
9 ....................

*** Darwin 20x20 ***
Turn = 0.
  01234567890123456789
0 ....................
1 ....................
2 f...................
3 ....................
4 ....................
5 f...................
6 ....................
7 ....................
8 ....................
9 .....h..............
0 ....................
1 ....................
2 ........r...........
3 ....................
4 ....................
5 ....................
6 ....................
7 ....................
8 ....................
9 .....r..............

Turn = 4.
  01234567890123456789
0 ....................
1 ....................
2 f...................
3 ....................
4 ....................
5 f...................
6 ....................
7 ....................
8 ....................
9 ........rr..........
0 ....................
1 ....................
2 ....................
3 ....................
4 ....................
5 ....................
6 ....................
7 ....................
8 ....................
9 .........r..........

Turn = 8.
  01234567890123456789
0 ....................
1 ....................
2 f...................
3 ....................
4 ....................
5 f.......r...........
6 ....................
7 ....................
8 ....................
9 .............r......
0 ....................
1 ....................
2 ....................
3 ....................
4 ....................
5 ....................
6 ....................
7 ....................
8 ....................
9 .............r......

*** Darwin 20x20 ***
Turn = 0.
  01234567890123456789
0 f....h......t.......
1 ..........t.........
2 .....h..............
3 ......t.............
4 .....h..............
5 ....................
6 f...................
7 .....h..............
8 .......t............
9 f....h..............
0 ............r.......
1 ....................
2 ....................
3 ......r.............
4 ....................
5 ....................
6 ....................
7 .........r..........
8 ....................
9 .....r..............

Turn = 3.
  01234567890123456789
0 f....h..h...t.......
1 ..........t.........
2 ....................
3 ......t.............
4 ......t.............
5 ....................
6 f...................
7 ..h.................
8 .......t............
9 f.......h...........
0 ...............r....
1 ....................
2 ....................
3 ...r................
4 ....................
5 ....................
6 ....................
7 ......r.............
8 ....................
9 ........r...........

Turn = 6.
  01234567890123456789
0 f....h.....ht.......
1 ..........t.........
2 ....................
3 ......t.............
4 ......t.............
5 ....................
6 f...................
7 h...................
8 .......t............
9 f..........h........
0 ..................r.
1 ....................
2 ....................
3 r...................
4 ....................
5 ....................
6 ....................
7 ...r................
8 ....................
9 ...........r........

Turn = 9.
  01234567890123456789
0 f....h.....tt.......
1 ..........t.........
2 ....................
3 ......t.............
4 ......t.............
5 ....................
6 f...................
7 h...................
8 .......t............
9 f.............h....r
0 ....................
1 r...................
2 ....................
3 ....................
4 ....................
5 ....................
6 ....................
7 r...................
8 ....................
9 ..............r.....

Turn = 12.
  01234567890123456789
0 f....h.....tt.......
1 ..........t.........
2 ....................
3 ......t.............
4 ......t.............
5 ....................
6 f..................r
7 h...................
8 .......t............
9 r................h..
0 r...................
1 ....................
2 ....................
3 ....................
4 ....................
5 r...................
6 ....................
7 ....................
8 ....................
9 .................r..

Turn = 15.
  01234567890123456789
0 f....h.....tt.......
1 ..........t.........
2 ....................
3 ......t............r
4 ......t.............
5 ....................
6 f...................
7 r...................
8 r......t............
9 ...................h
0 ...r................
1 ....................
2 r...................
3 ....................
4 ....................
5 ....................
6 ....................
7 ....................
8 ....................
9 ...................r

Turn = 18.
  01234567890123456789
0 f....h.....tt......r
1 ..........t.........
2 ....................
3 ......t.............
4 ......t.............
5 ....................
6 f...................
7 r...................
8 ..r....t............
9 r..................h
0 ......r.............
1 ....................
2 ....................
3 ....................
4 ....................
5 ....................
6 ...................r
7 ....................
8 ....................
9 ....................

